{
  "data": [
   {
      "id": 208,
      "date_created": "2021-12-21 09:01:25",
      "date_updated": "2021-12-21 09:01:26",
      "name": "380987777777",
      "lastname": "",
      "email": "380987777777@auto.nextel",
      "phone": "380987777777",
      "skype": "",
      "website": "",
      "organization": "",
      "status": "active",
      "language": "ua",
      "notifications": "1",
      "group": {
        "id": 1,
        "type": "user",
        "name": {
          "ua": "Клієнт",
          "ru": "",
          "en": ""
        },
        "disable": 0
      },
      "ldap_username": null,
      "user_status": "offline",
      "department": [
        1
      ],
      "custom_fields": [
        {
          "id": 5,
          "field_type": "text",
          "field_value": ""
        },
        {
          "id": 1,
          "field_type": "text",
          "field_value": ""
        },
        {
          "id": 2,
          "field_type": "text",
          "field_value": ""
        },
        {
          "id": 3,
          "field_type": "text",
          "field_value": ""
        },
        {
          "id": 4,
          "field_type": "checkbox",
          "field_value": 0
        }
      ],
      "api_key": "29a5887c-dbf9-4a52-8c9d-1d59fffd899f"
    },
    {
      "id": 216,
      "date_created": "2021-12-21 18:31:42",
      "date_updated": "2021-12-21 18:31:43",
      "name": "380988888888",
      "lastname": "",
      "email": "380988888888@auto.nextel",
      "phone": "380988888888",
      "skype": "",
      "website": "",
      "organization": "",
      "status": "active",
      "language": "ua",
      "notifications": "1",
      "group": {
        "id": 1,
        "type": "user",
        "name": {
          "ua": "Клієнт",
          "ru": "",
          "en": ""
        },
        "disable": 0
      },
      "ldap_username": null,
      "user_status": "offline",
      "department": [
        1
      ],
      "custom_fields": [
        {
          "id": 5,
          "field_type": "text",
          "field_value": ""
        },
        {
          "id": 1,
          "field_type": "text",
          "field_value": ""
        },
        {
          "id": 2,
          "field_type": "text",
          "field_value": ""
        },
        {
          "id": 3,
          "field_type": "text",
          "field_value": ""
        },
        {
          "id": 4,
          "field_type": "checkbox",
          "field_value": 0
        }
      ],
      "api_key": "c3018b9c-4d18-4d45-993f-5b5adfca4702"
    },
    {
      "id": 199,
      "date_created": "2021-12-20 12:05:43",
      "date_updated": "2021-12-20 12:05:43",
      "name": "380998888888",
      "lastname": "",
      "email": "380998888888@auto.nextel",
      "phone": "380998888888",
      "skype": "",
      "website": "",
      "organization": "",
      "status": "active",
      "language": "ua",
      "notifications": "1",
      "group": {
        "id": 1,
        "type": "user",
        "name": {
          "ua": "Клієнт",
          "ru": "",
          "en": ""
        },
        "disable": 0
      },
      "ldap_username": null,
      "user_status": "offline",
      "department": [
        1
      ],
      "custom_fields": [
        {
          "id": 5,
          "field_type": "text",
          "field_value": ""
        },
        {
          "id": 1,
          "field_type": "text",
          "field_value": ""
        },
        {
          "id": 2,
          "field_type": "text",
          "field_value": ""
        },
        {
          "id": 3,
          "field_type": "text",
          "field_value": ""
        },
        {
          "id": 4,
          "field_type": "checkbox",
          "field_value": 0
        }
      ],
      "api_key": "1bfa48d4-1f1e-4752-803a-8e3252259178"
    },
    {
      "id": 179,
      "date_created": "2021-12-14 18:53:47",
      "date_updated": "2021-12-14 18:53:48",
      "name": "380999999999",
      "lastname": "",
      "email": "380999999999@auto.nextel",
      "phone": "380999999999",
      "skype": "",
      "website": "",
      "organization": "",
      "status": "active",
      "language": "ua",
      "notifications": "1",
      "group": {
        "id": 1,
        "type": "user",
        "name": {
          "ua": "Клієнт",
          "ru": "",
          "en": ""
        },
        "disable": 0
      },
      "ldap_username": null,
      "user_status": "offline",
      "department": [
        1
      ],
      "custom_fields": [
        {
          "id": 5,
          "field_type": "text",
          "field_value": ""
        },
        {
          "id": 1,
          "field_type": "text",
          "field_value": ""
        },
        {
          "id": 2,
          "field_type": "text",
          "field_value": ""
        },
        {
          "id": 3,
          "field_type": "text",
          "field_value": ""
        },
        {
          "id": 4,
          "field_type": "checkbox",
          "field_value": 0
        }
      ],
      "api_key": "e1ec6f95-c7ae-491c-b274-bdc42b3e762c"
    },
    {
      "id": 200,
      "date_created": "2021-12-20 14:14:19",
      "date_updated": "2021-12-20 14:14:20",
      "name": "380997996909",
      "lastname": "",
      "email": "380997996909@auto.nextel",
      "phone": "380997996909",
      "skype": "",
      "website": "",
      "organization": "",
      "status": "active",
      "language": "ua",
      "notifications": "1",
      "group": {
        "id": 1,
        "type": "user",
        "name": {
          "ua": "Клієнт",
          "ru": "",
          "en": ""
        },
        "disable": 0
      },
      "ldap_username": null,
      "user_status": "offline",
      "department": [
        1
      ],
      "custom_fields": [
        {
          "id": 5,
          "field_type": "text",
          "field_value": ""
        },
        {
          "id": 1,
          "field_type": "text",
          "field_value": ""
        },
        {
          "id": 2,
          "field_type": "text",
          "field_value": ""
        },
        {
          "id": 3,
          "field_type": "text",
          "field_value": ""
        },
        {
          "id": 4,
          "field_type": "checkbox",
          "field_value": 0
        }
      ],
      "api_key": "011ea860-9511-485d-ba7a-114716c3e23a"
    },
    {
      "id": 146,
      "date_created": "2021-12-02 18:41:30",
      "date_updated": "2021-12-02 18:42:04",
      "name": "Aleksandra",
      "lastname": "",
      "email": "Gln\/8t3SWnYlZcdEe2Y3ow==1638463290@auto.viber",
      "phone": "",
      "skype": "",
      "website": "",
      "organization": "",
      "status": "active",
      "language": "ua",
      "notifications": "0",
      "group": {
        "id": 1,
        "type": "user",
        "name": {
          "ua": "Клієнт",
          "ru": "",
          "en": ""
        },
        "disable": 0
      },
      "ldap_username": null,
      "user_status": "offline",
      "department": [
        1
      ],
      "custom_fields": [
        {
          "id": 5,
          "field_type": "text",
          "field_value": ""
        },
        {
          "id": 1,
          "field_type": "text",
          "field_value": ""
        },
        {
          "id": 2,
          "field_type": "text",
          "field_value": ""
        },
        {
          "id": 3,
          "field_type": "text",
          "field_value": ""
        },
        {
          "id": 4,
          "field_type": "checkbox",
          "field_value": 0
        }
      ],
      "api_key": "86ce4fcb-bd0e-4c53-b08b-e5fb5d30cb1a"
    },
      {
        "id":243,
        "date_created":"2022-01-13 21:33:17",
        "date_updated":"2022-01-25 15:10:38", 
        "name":"Subscriber",
        "lastname":"",
        "email":"T42fqE29gtH2Xzwy5ZOJrw==1642102397@auto.viber",
        "phone":"",
        "skype":"",
        "website":"",
        "organization":
        {
            "id":"4",
            "name":"Рома магазини",
            "domains":"",
            "address":"",
            "phone":"",
            "email":"",
            "web":""
        },
        "status":"active",
        "language":"ua",
        "notifications":"0",
        "group":
        {
            "id":1,
            "type":"user",
            "name":
            {
                "ua":"Клієнт",
                "ru":""
                ,"en":""
            },
            "disable":0
        },
        "ldap_username":null,
        "user_status":"offline",
        "department":[1],
        "custom_fields":[
            {
                "id":5,
                "field_type":"text",
                "field_value":"касир"
            },
            {
                "id":1,
                "field_type":"text",
                "field_value":"Т11"
            },
            {
                "id":6,
                "field_type":"text",
                "field_value":""
            },
            {
                "id":2,
                "field_type":"text",
                "field_value":"10.133.61."
            },
            {
                "id":4,
                "field_type":"checkbox",
                "field_value":0
            },
            {
                "id":8,
                "field_type":"text",
                "field_value":"T42fqE29gtH2Xzwy5ZOJrw=="
            }
        ],
        "api_key":"500e0b4f-b59b-45dd-824e-e3042a4807ee"
      },
      {
    "id": 37,
    "date_created": "2021-09-14 07:50:30",
    "date_updated": "2022-01-25 11:44:00",
    "name": "Власенко",
    "lastname": "Ирина",
    "email": "6470991921631598629@auto.tlgrm",
    "phone": "+380971234567",
    "skype": "",
    "website": "",
    "organization": 
      {
      "id": "3",
      "name": "Економи",
      "domains": "",
      "address": "",
      "phone": "",
      "email": "",
      "web": ""
    },
    "status": "active",
    "language": "ua",
    "notifications": "0",
    "group": 
      {
      "id": 1,
      "type": "user",
      "name": {
        "ua": "Клієнт",
        "ru": "",
        "en": ""
      },
      "disable": 0
    },
    "ldap_username": null,
    "user_status": "offline",
    "department": [
      1
    ],
    "custom_fields": [
      {
        "id": 5,
        "field_type": "text",
        "field_value": "Керуюча"
      },
      {
        "id": 1,
        "field_type": "text",
        "field_value": "Е25"
      },
      {
        "id": 6,
        "field_type": "text",
        "field_value": ""
      },
      {
        "id": 2,
        "field_type": "text",
        "field_value": "10.23.134."
      },
      {
        "id": 3,
        "field_type": "text",
        "field_value": ""
      },
      {
        "id": 4,
        "field_type": "checkbox",
        "field_value": 0
      },
      {
        "id": 7,
        "field_type": "text",
        "field_value": "647099192"
      }
    ],
    "api_key": "5c3d9312-4b66-45c6-9b10-1234dcfac76a"
  },
 {
    "id": 372,
    "date_created": "2021-09-14 07:50:30",
    "date_updated": "2022-01-25 11:44:00",
    "name": "Taras",
    "lastname": "Bart",
    "email": "6470991921631598629@auto.tlgrm",
    "phone": "+380971234567",
    "skype": "",
    "website": "",
    "organization": 
      {
      "id": "1221",
      "name": "OrganizationForTaras3Page",
      "domains": "",
      "address": "",
      "phone": "",
      "email": "",
      "web": ""
    },
    "status": "active",
    "language": "ua",
    "notifications": "0",
    "group": 
      {
      "id": 1,
      "type": "user",
      "name": {
        "ua": "Клієнт",
        "ru": "",
        "en": ""
      },
      "disable": 0
    },
    "ldap_username": null,
    "user_status": "offline",
    "department": [
      1
    ],
    "custom_fields": [
      {
        "id": 5,
        "field_type": "text",
        "field_value": "Dev"
      },
      {
        "id": 1,
        "field_type": "text",
        "field_value": "Е25"
      },
      {
        "id": 6,
        "field_type": "text",
        "field_value": ""
      },
      {
        "id": 2,
        "field_type": "text",
        "field_value": "10.23.134."
      },
      {
        "id": 3,
        "field_type": "text",
        "field_value": ""
      },
      {
        "id": 4,
        "field_type": "checkbox",
        "field_value": 0
      },
      {
        "id": 7,
        "field_type": "text",
        "field_value": "599357488"
      },
         {
        "id": 8,
        "field_type": "text",
        "field_value": "u+XEv2lfSH+o+Bh6j3Gtmg=="
      }
    ],
    "api_key": "1taras3Page"
  },
      {
    "id": 999,
    "date_created": "2021-09-14 07:50:30",
    "date_updated": "2022-01-25 11:44:00",
    "name": "Taras",
    "lastname": "Bart",
    "email": "6470991921631598629@auto.tlgrm",
    "phone": "+380971234567",
    "skype": "",
    "website": "",
    "organization": 
      {
      "id": "12",
      "name": "OrganizationForTwo",
      "domains": "",
      "address": "",
      "phone": "",
      "email": "",
      "web": ""
    },
    "status": "active",
    "language": "ua",
    "notifications": "0",
    "group": 
      {
      "id": 1,
      "type": "user",
      "name": {
        "ua": "Клієнт",
        "ru": "",
        "en": ""
      },
      "disable": 0
    },
    "ldap_username": null,
    "user_status": "offline",
    "department": [
      1
    ],
    "custom_fields": [
      {
        "id": 5,
        "field_type": "text",
        "field_value": "Dev"
      },
      {
        "id": 1,
        "field_type": "text",
        "field_value": "Е25"
      },
      {
        "id": 6,
        "field_type": "text",
        "field_value": ""
      },
      {
        "id": 2,
        "field_type": "text",
        "field_value": "10.23.134."
      },
      {
        "id": 3,
        "field_type": "text",
        "field_value": ""
      },
      {
        "id": 4,
        "field_type": "checkbox",
        "field_value": 0
      },
      {
        "id": 7,
        "field_type": "text",
        "field_value": "599357488"
      },
        {
        "id": 8,
        "field_type": "text",
        "field_value": "u+XEv2lfSH+o+Bh6j3Gtmg=="
      }
    ],
    "api_key": "1taras"
  },
      {
    "id": 990,
    "date_created": "2021-09-14 07:50:30",
    "date_updated": "2022-01-25 11:44:00",
    "name": "Alex",
    "lastname": "",
    "email": "6470991921631598629@auto.tlgrm",
    "phone": "+380971234567",
    "skype": "",
    "website": "",
    "organization": 
      {
      "id": "13",
      "name": "OrganizationForAlex",
      "domains": "",
      "address": "",
      "phone": "",
      "email": "",
      "web": ""
    },
    "status": "active",
    "language": "ua",
    "notifications": "0",
    "group": 
      {
      "id": 1,
      "type": "user",
      "name": {
        "ua": "Клієнт",
        "ru": "",
        "en": ""
      },
      "disable": 0
    },
    "ldap_username": null,
    "user_status": "offline",
    "department": [
      1
    ],
    "custom_fields": [
      {
        "id": 5,
        "field_type": "text",
        "field_value": "Dev"
      },
      {
        "id": 1,
        "field_type": "text",
        "field_value": "Е25"
      },
      {
        "id": 6,
        "field_type": "text",
        "field_value": ""
      },
      {
        "id": 2,
        "field_type": "text",
        "field_value": "10.23.134."
      },
      {
        "id": 3,
        "field_type": "text",
        "field_value": ""
      },
      {
        "id": 4,
        "field_type": "checkbox",
        "field_value": 0
      }
    ],
    "api_key": "2Alex"
  },
       {
    "id": 999,
    "date_created": "2021-09-14 07:50:30",
    "date_updated": "2022-01-25 11:44:00",
    "name": "Alex",
    "lastname": "",
    "email": "6470991921631598629@auto.tlgrm",
    "phone": "+380971234567",
    "skype": "",
    "website": "",
    "organization": 
      {
      "id": "12",
      "name": "OrganizationForTwo",
      "domains": "",
      "address": "",
      "phone": "",
      "email": "",
      "web": ""
    },
    "status": "active",
    "language": "ua",
    "notifications": "0",
    "group": 
      {
      "id": 1,
      "type": "user",
      "name": {
        "ua": "Клієнт",
        "ru": "",
        "en": ""
      },
      "disable": 0
    },
    "ldap_username": null,
    "user_status": "offline",
    "department": [
      1
    ],
    "custom_fields": [
      {
        "id": 5,
        "field_type": "text",
        "field_value": "Dev"
      },
      {
        "id": 1,
        "field_type": "text",
        "field_value": "Е25"
      },
      {
        "id": 6,
        "field_type": "text",
        "field_value": ""
      },
      {
        "id": 2,
        "field_type": "text",
        "field_value": "10.23.134."
      },
      {
        "id": 3,
        "field_type": "text",
        "field_value": ""
      },
      {
        "id": 4,
        "field_type": "checkbox",
        "field_value": 0
      }
    ],
    "api_key": "2Alex"
  },
      {
    "id": 372,
    "date_created": "2021-09-14 07:50:30",
    "date_updated": "2022-01-25 11:44:00",
    "name": "Taras",
    "lastname": "Bart",
    "email": "6470991921631598629@auto.tlgrm",
    "phone": "+380971234567",
    "skype": "",
    "website": "",
    "organization": 
      {
      "id": "1199",
      "name": "OrganizationForTaras",
      "domains": "",
      "address": "",
      "phone": "",
      "email": "",
      "web": ""
    },
    "status": "active",
    "language": "ua",
    "notifications": "0",
    "group": 
      {
      "id": 1,
      "type": "user",
      "name": {
        "ua": "Клієнт",
        "ru": "",
        "en": ""
      },
      "disable": 0
    },
    "ldap_username": null,
    "user_status": "offline",
    "department": [
      1
    ],
    "custom_fields": [
      {
        "id": 5,
        "field_type": "text",
        "field_value": "Dev"
      },
      {
        "id": 1,
        "field_type": "text",
        "field_value": "Е25"
      },
      {
        "id": 6,
        "field_type": "text",
        "field_value": ""
      },
      {
        "id": 2,
        "field_type": "text",
        "field_value": "10.23.134."
      },
      {
        "id": 3,
        "field_type": "text",
        "field_value": ""
      },
      {
        "id": 4,
        "field_type": "checkbox",
        "field_value": 0
      },
      {
        "id": 7,
        "field_type": "text",
        "field_value": "599357488"
      },
         {
        "id": 8,
        "field_type": "text",
        "field_value": "u+XEv2lfSH+o+Bh6j3Gtmg=="
      }
    ],
    "api_key": "1taras3Page"
  }
  ],
  "pagination": {
    "total": 198,
    "per_page": 30,
    "current_page": 3,
    "total_pages": 3
  }
}