{
  "data": [
    {
      "id": 185,
      "date_created": "2021-12-17 11:42:51",
      "date_updated": "2021-12-17 11:42:52",
      "name": "380503772773",
      "lastname": "",
      "organization": "Your Group",
      "email": "380503772773@auto.nextel",
      "phone": "380503772773",
      "custom_fields": [
        {
          "id": 7,
          "field_type": "text",
          "field_value": "599357488"
        },
        {
          "id": 8,
          "field_type": "text",
          "field_value": "u+XEv2lfSH+o+Bh6j3Gtmg=="
        },
        {
          "id": 2,
          "field_type": "text",
          "field_value": ""
        }
      ]
    }
  ],
  "pagination": {
    "total": 198,
    "per_page": 30,
    "current_page": 2,
    "total_pages": 3
  }
}