{
  "data": [
    {
      "id": 185,
      "date_created": "2021-12-17 11:42:51",
      "date_updated": "2021-12-17 11:42:52",
      "name": "380503772773",
      "organization": "Your Group",
      "lastname": "",
      "email": "some@gmail.com",
      "phone": "380503772773",
      "custom_fields": [
        {
          "id": 7,
          "field_type": "tg Token",
          "field_value": "" 
        },
        {
          "id": 8,
          "field_type": "viber Token",
          "field_value": ""
        },
        {
          "id": 2,
          "field_type": "text",
          "field_value": ""
        }
      ]
    }
  ],
  "pagination": {
    "total": 198,
    "per_page": 30,
    "current_page": 1,
    "total_pages": 3
  }
  }